[
    {
        "productName": "GoPro Hero 9",
        "price": 14399,
        "path": "https://steady.com.ua/wp-content/uploads/2020/09/GoPro-Hero-9-Black-01.jpg",
        "sku": "CHDHX-901-RW",
        "color": "Black"
    },
    {
        "productName": "GoPro Hero 8",
        "price": 9120,
        "path": "https://steady.com.ua/wp-content/uploads/2019/10/action-kamera-gopro-hero8-black-9.jpg",
        "sku": "CHDHX-801-RW",
        "color": "Black"
    },
    {
        "productName": "GoPro Max",
        "price": 12499,
        "path": "https://steady.com.ua/wp-content/uploads/2019/10/panoramnaya-action-kamera-gopro-max-5.jpg",
        "sku": "CHDHZ-201-FW",
        "color": "Black"
    },
    {
        "productName": "GoPro Hero 7",
        "price": 7469,
        "path": "https://steady.com.ua/wp-content/uploads/2018/09/hero_7_black-01-1.jpg",
        "sku": "CHDHX-701-RW",
        "color": "Black"
    },
    {
        "productName": "GoPro Hero 7",
        "price": 6399,
        "path": "https://steady.com.ua/wp-content/uploads/2018/09/HERO7_Silver_3.jpg",
        "sku": "CHDHC-601-RW",
        "color": "Silver"
    },
    {
        "productName": "GoPro Hero 7",
        "price": 5499,
        "path": "https://steady.com.ua/wp-content/uploads/2018/09/HERO7_White_1.jpg",
        "sku": "CHDHB-601-RW",
        "color": "White"
    },
    {
        "productName": "GoPro Fusion",
        "price": 11999,
        "path": "https://steady.com.ua/wp-content/uploads/2018/12/gopro_fusion-1.jpg",
        "sku": "CHDHZ-103",
        "color": "Black"
    },
    {
        "productName": "DJI Osmo Action",
        "price": 9770,
        "path": "https://steady.com.ua/wp-content/uploads/2019/05/Osmo-Action-1.jpg",
        "sku": "CP.OS.00000020.01",
        "color": "Silver"
    },
    {
        "productName": "SJCAM SJ8 Pro",
        "price": 4999,
        "path": "https://steady.com.ua/wp-content/uploads/2018/07/sjcam-sj8-pro-6.jpg",
        "sku": "SJ8PROBLF",
        "color": "Black"
    }, 
    {
        "productName": "SJCAM SJ8 Plus",
        "price": 3899,
        "path": "https://steady.com.ua/wp-content/uploads/2018/07/sjcam-sj8-plus-black.jpg",
        "sku": "SJ8PLUSBLF",
        "color": "Black"
    }
]